{
  "connection": "default",
  "collectionName": "bidang",
  "info": {
    "name": "bidang",
    "description": ""
  },
  "options": {
    "increments": true,
    "timestamps": true,
    "comment": ""
  },
  "attributes": {
    "dinas": {
      "model": "dinas"
    },
    "nama_pendek": {
      "type": "string"
    },
    "nama_panjang": {
      "type": "string"
    },
    "email": {
      "type": "email"
    },
    "is_deleted": {
      "type": "boolean"
    }
  }
}
