{
  "paths": {
    "/kegiatanevidence": {
      "get": {
        "deprecated": false,
        "description": "Find all the kegiatanevidence's records",
        "responses": {
          "200": {
            "description": "Retrieve kegiatanevidence document(s)",
            "content": {
              "application/json": {
                "schema": {
                  "type": "array",
                  "items": {
                    "$ref": "#/components/schemas/Kegiatanevidence"
                  }
                }
              }
            }
          },
          "403": {
            "description": "Forbidden",
            "content": {
              "application/json": {
                "schema": {
                  "$ref": "#/components/schemas/Error"
                }
              }
            }
          },
          "404": {
            "description": "Not found",
            "content": {
              "application/json": {
                "schema": {
                  "$ref": "#/components/schemas/Error"
                }
              }
            }
          },
          "default": {
            "description": "unexpected error",
            "content": {
              "application/json": {
                "schema": {
                  "$ref": "#/components/schemas/Error"
                }
              }
            }
          }
        },
        "summary": "",
        "tags": [
          "Kegiatanevidence"
        ],
        "parameters": [
          {
            "name": "_limit",
            "in": "query",
            "required": false,
            "description": "Maximum number of results possible",
            "schema": {
              "type": "integer"
            },
            "deprecated": false
          },
          {
            "name": "_sort",
            "in": "query",
            "required": false,
            "description": "Sort according to a specific field.",
            "schema": {
              "type": "string"
            },
            "deprecated": false
          },
          {
            "name": "_start",
            "in": "query",
            "required": false,
            "description": "Skip a specific number of entries (especially useful for pagination)",
            "schema": {
              "type": "integer"
            },
            "deprecated": false
          },
          {
            "name": "=",
            "in": "query",
            "required": false,
            "description": "Get entries that matches exactly your input",
            "schema": {
              "type": "string"
            },
            "deprecated": false
          },
          {
            "name": "_ne",
            "in": "query",
            "required": false,
            "description": "Get records that are not equals to something",
            "schema": {
              "type": "string"
            },
            "deprecated": false
          },
          {
            "name": "_lt",
            "in": "query",
            "required": false,
            "description": "Get record that are lower than a value",
            "schema": {
              "type": "string"
            },
            "deprecated": false
          },
          {
            "name": "_lte",
            "in": "query",
            "required": false,
            "description": "Get records that are lower than or equal to a value",
            "schema": {
              "type": "string"
            },
            "deprecated": false
          },
          {
            "name": "_gt",
            "in": "query",
            "required": false,
            "description": "Get records that are greater than a value",
            "schema": {
              "type": "string"
            },
            "deprecated": false
          },
          {
            "name": "_gte",
            "in": "query",
            "required": false,
            "description": "Get records that are greater than  or equal a value",
            "schema": {
              "type": "string"
            },
            "deprecated": false
          },
          {
            "name": "_contains",
            "in": "query",
            "required": false,
            "description": "Get records that contains a value",
            "schema": {
              "type": "string"
            },
            "deprecated": false
          },
          {
            "name": "_containss",
            "in": "query",
            "required": false,
            "description": "Get records that contains (case sensitive) a value",
            "schema": {
              "type": "string"
            },
            "deprecated": false
          },
          {
            "name": "_in",
            "in": "query",
            "required": false,
            "description": "Get records that matches any value in the array of values",
            "schema": {
              "type": "array"
            },
            "deprecated": false
          },
          {
            "name": "_nin",
            "in": "query",
            "required": false,
            "description": "Get records that doesn't match any value in the array of values",
            "schema": {
              "type": "array"
            },
            "deprecated": false
          }
        ]
      },
      "post": {
        "deprecated": false,
        "description": "Create a new kegiatanevidence record",
        "responses": {
          "200": {
            "description": "Retrieve kegiatanevidence document(s)",
            "content": {
              "application/json": {
                "schema": {
                  "$ref": "#/components/schemas/Kegiatanevidence"
                }
              }
            }
          },
          "403": {
            "description": "Forbidden",
            "content": {
              "application/json": {
                "schema": {
                  "$ref": "#/components/schemas/Error"
                }
              }
            }
          },
          "404": {
            "description": "Not found",
            "content": {
              "application/json": {
                "schema": {
                  "$ref": "#/components/schemas/Error"
                }
              }
            }
          },
          "default": {
            "description": "unexpected error",
            "content": {
              "application/json": {
                "schema": {
                  "$ref": "#/components/schemas/Error"
                }
              }
            }
          }
        },
        "summary": "",
        "tags": [
          "Kegiatanevidence"
        ],
        "requestBody": {
          "description": "",
          "required": true,
          "content": {
            "application/json": {
              "schema": {
                "$ref": "#/components/schemas/NewKegiatanevidence"
              }
            }
          }
        }
      }
    },
    "/kegiatanevidence/count": {
      "get": {
        "deprecated": false,
        "description": "Retrieve the numver of kegiatanevidence documents",
        "responses": {
          "200": {
            "description": "Retrieve kegiatanevidence document(s)",
            "content": {
              "application/json": {
                "schema": {
                  "properties": {
                    "count": {
                      "type": "integer"
                    }
                  }
                }
              }
            }
          },
          "403": {
            "description": "Forbidden",
            "content": {
              "application/json": {
                "schema": {
                  "$ref": "#/components/schemas/Error"
                }
              }
            }
          },
          "404": {
            "description": "Not found",
            "content": {
              "application/json": {
                "schema": {
                  "$ref": "#/components/schemas/Error"
                }
              }
            }
          },
          "default": {
            "description": "unexpected error",
            "content": {
              "application/json": {
                "schema": {
                  "$ref": "#/components/schemas/Error"
                }
              }
            }
          }
        },
        "summary": "",
        "tags": [
          "Kegiatanevidence"
        ],
        "parameters": []
      }
    },
    "/kegiatanevidence/{id}": {
      "get": {
        "deprecated": false,
        "description": "Find one kegiatanevidence record",
        "responses": {
          "200": {
            "description": "Retrieve kegiatanevidence document(s)",
            "content": {
              "application/json": {
                "schema": {
                  "$ref": "#/components/schemas/Kegiatanevidence"
                }
              }
            }
          },
          "403": {
            "description": "Forbidden",
            "content": {
              "application/json": {
                "schema": {
                  "$ref": "#/components/schemas/Error"
                }
              }
            }
          },
          "404": {
            "description": "Not found",
            "content": {
              "application/json": {
                "schema": {
                  "$ref": "#/components/schemas/Error"
                }
              }
            }
          },
          "default": {
            "description": "unexpected error",
            "content": {
              "application/json": {
                "schema": {
                  "$ref": "#/components/schemas/Error"
                }
              }
            }
          }
        },
        "summary": "",
        "tags": [
          "Kegiatanevidence"
        ],
        "parameters": [
          {
            "name": "id",
            "in": "path",
            "description": "",
            "deprecated": false,
            "required": true,
            "schema": {
              "type": "string"
            }
          }
        ]
      },
      "put": {
        "deprecated": false,
        "description": "Update a single kegiatanevidence record",
        "responses": {
          "200": {
            "description": "Retrieve kegiatanevidence document(s)",
            "content": {
              "application/json": {
                "schema": {
                  "$ref": "#/components/schemas/Kegiatanevidence"
                }
              }
            }
          },
          "403": {
            "description": "Forbidden",
            "content": {
              "application/json": {
                "schema": {
                  "$ref": "#/components/schemas/Error"
                }
              }
            }
          },
          "404": {
            "description": "Not found",
            "content": {
              "application/json": {
                "schema": {
                  "$ref": "#/components/schemas/Error"
                }
              }
            }
          },
          "default": {
            "description": "unexpected error",
            "content": {
              "application/json": {
                "schema": {
                  "$ref": "#/components/schemas/Error"
                }
              }
            }
          }
        },
        "summary": "",
        "tags": [
          "Kegiatanevidence"
        ],
        "requestBody": {
          "description": "",
          "required": true,
          "content": {
            "application/json": {
              "schema": {
                "$ref": "#/components/schemas/NewKegiatanevidence"
              }
            }
          }
        },
        "parameters": [
          {
            "name": "id",
            "in": "path",
            "description": "",
            "deprecated": false,
            "required": true,
            "schema": {
              "type": "string"
            }
          }
        ]
      },
      "delete": {
        "deprecated": false,
        "description": "Delete a single kegiatanevidence record",
        "responses": {
          "200": {
            "description": "deletes a single kegiatanevidence based on the ID supplied",
            "content": {
              "application/json": {
                "schema": {
                  "type": "integer",
                  "format": "int64"
                }
              }
            }
          },
          "403": {
            "description": "Forbidden",
            "content": {
              "application/json": {
                "schema": {
                  "$ref": "#/components/schemas/Error"
                }
              }
            }
          },
          "404": {
            "description": "Not found",
            "content": {
              "application/json": {
                "schema": {
                  "$ref": "#/components/schemas/Error"
                }
              }
            }
          },
          "default": {
            "description": "unexpected error",
            "content": {
              "application/json": {
                "schema": {
                  "$ref": "#/components/schemas/Error"
                }
              }
            }
          }
        },
        "summary": "",
        "tags": [
          "Kegiatanevidence"
        ],
        "parameters": [
          {
            "name": "id",
            "in": "path",
            "description": "",
            "deprecated": false,
            "required": true,
            "schema": {
              "type": "string"
            }
          }
        ]
      }
    }
  },
  "components": {
    "schemas": {
      "Kegiatanevidence": {
        "required": [
          "id"
        ],
        "properties": {
          "id": {
            "type": "string"
          },
          "kegiatan": {
            "required": [
              "id"
            ],
            "properties": {
              "id": {
                "type": "string"
              },
              "user": {
                "type": "string"
              },
              "dinas": {
                "type": "string"
              },
              "bidang": {
                "type": "string"
              },
              "seksi": {
                "type": "string"
              },
              "tanggal": {
                "type": "string"
              },
              "nama_kegiatan": {
                "type": "string"
              },
              "tempat": {
                "type": "string"
              },
              "penyelenggara": {
                "type": "string"
              },
              "is_tugas_pokok": {
                "type": "boolean"
              },
              "trigger": {
                "type": "string"
              },
              "keterangan": {
                "type": "string"
              },
              "is_deleted": {
                "type": "boolean"
              },
              "tahun": {
                "type": "string"
              },
              "bulan": {
                "type": "string"
              },
              "hari": {
                "type": "string"
              },
              "tanggal_kegiatan": {
                "type": "string"
              },
              "tanggal_input": {
                "type": "string"
              }
            }
          },
          "evidence": {
            "required": [
              "id"
            ],
            "properties": {
              "id": {
                "type": "string"
              },
              "nama": {
                "type": "string"
              },
              "path": {
                "type": "string"
              },
              "tag": {
                "type": "string"
              },
              "is_deleted": {
                "type": "boolean"
              },
              "is_public": {
                "type": "boolean"
              },
              "user": {
                "type": "string"
              },
              "dari": {
                "type": "string"
              },
              "tahun": {
                "type": "string"
              },
              "bulan": {
                "type": "string"
              },
              "hari": {
                "type": "string"
              },
              "user_telegram": {
                "type": "string"
              },
              "nama_telegram": {
                "type": "string"
              },
              "id_telegram": {
                "type": "integer"
              },
              "batch": {
                "type": "integer"
              }
            }
          },
          "is_deleted": {
            "type": "boolean"
          }
        }
      },
      "NewKegiatanevidence": {
        "properties": {
          "kegiatan": {
            "type": "string"
          },
          "evidence": {
            "type": "string"
          },
          "is_deleted": {
            "type": "boolean"
          }
        }
      }
    }
  },
  "tags": [
    {
      "name": "Kegiatanevidence"
    }
  ]
}