{
  "connection": "default",
  "info": {
    "name": "user",
    "description": ""
  },
  "attributes": {
    "username": {
      "type": "string",
      "minLength": 3,
      "unique": true,
      "configurable": false,
      "required": true
    },
    "email": {
      "type": "email",
      "minLength": 6,
      "configurable": false,
      "required": true
    },
    "provider": {
      "type": "string",
      "configurable": false
    },
    "password": {
      "type": "password",
      "minLength": 6,
      "configurable": false,
      "private": true
    },
    "resetPasswordToken": {
      "type": "string",
      "configurable": false,
      "private": true
    },
    "confirmed": {
      "type": "boolean",
      "default": false,
      "configurable": false
    },
    "blocked": {
      "type": "boolean",
      "default": false,
      "configurable": false
    },
    "role": {
      "model": "role",
      "via": "users",
      "plugin": "users-permissions",
      "configurable": false
    },
    "tempat_lahir": {
      "type": "string"
    },
    "tanggal_lahir": {
      "type": "date"
    },
    "jenis_kelamin": {
      "type": "string"
    },
    "alamat": {
      "type": "text"
    },
    "no_telp": {
      "type": "string"
    },
    "keterangan": {
      "type": "text"
    },
    "dinas": {
      "model": "dinas"
    },
    "bidang": {
      "model": "bidang"
    },
    "seksi": {
      "model": "seksi"
    },
    "jabatan": {
      "model": "jabatan"
    },
    "pangkat": {
      "model": "pangkat"
    },
    "nama": {
      "type": "string"
    },
    "nip": {
      "type": "string"
    },
    "kode": {
      "type": "string"
    },
    "foto_profil": {
      "type": "text"
    },
    "tanggal_masuk": {
      "type": "date"
    },
    "tanggal_keluar": {
      "type": "date"
    },
    "status_pegawai": {
      "type": "boolean"
    },
    "is_deleted": {
      "type": "boolean"
    },
    "created_at": {
      "type": "date"
    },
    "updated_at": {
      "type": "date"
    },
    "evidences": {
      "collection": "evidence",
      "via": "user"
    },
    "undefined": {
      "collection": "kegiatan",
      "via": "user"
    }
  },
  "collectionName": "users-permissions_user"
}